…
data_lst <- furrr::future_map(toilet_datasets_ids, ~ aur_get(.x))
#> i Downloading 'aurin:datasource-AU_Govt_DSS-UoM_AURIN_national_public_toilets_2017'...
#> v Finished!
#> i Downloading 'aurin:datasource-AU_Govt_Doh-UoM_AURIN_DB_national_toilet_map_2018_06'...
#> v Finished!
#> i Downloading 'aurin:datasource-UQ_ERG-UoM_AURIN_DB_public_toilets'...
#> v Finished!
data_lst
#> [[1]]
#> Simple feature collection with 18789 features and 46 fields
#> Geometry type: POINT
#> Dimension:     XY
#> Bounding box:  xmin: 113.4102 ymin: -43.582 xmax: 153.6263 ymax: -10.5702
#> Geodetic CRS:  WGS 84
#> # A tibble: 18,789 x 47
#>    id        toilet_id url     name  address1 town  state postcode address_note  male  female unisex dump_point facility_type toilet_type access_limited payment_required key_required
#>    <chr>         <int> <chr>   <chr> <chr>    <chr> <chr>    <int> <chr>         <lgl> <lgl>  <lgl>  <lgl>      <chr>         <chr>       <lgl>          <lgl>            <lgl>       
#>  1 datasour~       341 https:~ Elsi~ Alden S~ Clif~ Quee~     4361 <NA>          TRUE  TRUE   FALSE  FALSE      Park or rese~ <NA>        FALSE          FALSE            FALSE       
#>  2 datasour~       418 https:~ Luck~ Lucky B~ Luck~ Sout~     5602 <NA>          TRUE  TRUE   FALSE  FALSE      <NA>          <NA>        FALSE          FALSE            FALSE       
#>  3 datasour~       634 https:~ Olds~ Holley ~ Mort~ New ~     2223 <NA>          TRUE  TRUE   FALSE  FALSE      Park or rese~ <NA>        FALSE          FALSE            FALSE       
#>  4 datasour~      1150 https:~ Jaeg~ Hill St~ Oran~ New ~     2800 <NA>          TRUE  TRUE   FALSE  FALSE      Park or rese~ <NA>        FALSE          FALSE            FALSE       
#>  5 datasour~      1207 https:~ Lake~ Evans S~ Shen~ West~     6008 <NA>          FALSE FALSE  TRUE   FALSE      Park or rese~ Automatic   FALSE          FALSE            FALSE       
#>  6 datasour~      1535 https:~ Earl~ Earl St~ Coff~ New ~     2450 <NA>          TRUE  TRUE   FALSE  FALSE      Sporting fac~ Sewerage    FALSE          FALSE            FALSE       
#>  7 datasour~      1590 https:~ Truc~ Davidso~ Deni~ New ~     2710 <NA>          TRUE  TRUE   FALSE  FALSE      Car park      Sewerage    FALSE          FALSE            FALSE       
#>  8 datasour~      1913 https:~ Hemi~ High St~ Belm~ Vict~     3216 <NA>          TRUE  TRUE   FALSE  FALSE      <NA>          <NA>        FALSE          FALSE            FALSE       
#>  9 datasour~      2081 https:~ Eden~ Eden Va~ Keyn~ Sout~     5353 The toilet i~ TRUE  TRUE   FALSE  FALSE      Park or rese~ Septic      FALSE          FALSE            FALSE       
#> 10 datasour~      2377 https:~ Wils~ Wilson ~ Watt~ Vict~     3096 <NA>          TRUE  TRUE   FALSE  FALSE      <NA>          <NA>        FALSE          FALSE            FALSE       
#> # ... with 18,779 more rows, and 29 more variables: access_note <chr>, parking <lgl>, parking_note <chr>, accessible_male <lgl>, accessible_female <lgl>, accessible_unisex <lgl>,
#> #   accessible_note <chr>, mlak <lgl>, parking_accessible <lgl>, access_parking_note <chr>, ambulant <lgl>, lh_transfer <lgl>, rh_transfer <lgl>, adult_change <lgl>, is_open <chr>,
#> #   opening_hours <chr>, openinghours_note <chr>, baby_change <lgl>, showers <lgl>, drinking_water <lgl>, sharps_disposal <lgl>, sanitary_disposal <lgl>, icon_url <chr>,
#> #   icon_alt_text <chr>, notes <chr>, status <chr>, latitude <dbl>, longitude <dbl>, geometry <POINT [°]>
#> 
#> [[2]]
#> Simple feature collection with 19034 features and 47 fields
#> Geometry type: POINT
#> Dimension:     XY
#> Bounding box:  xmin: 113.4102 ymin: -43.5828 xmax: 153.6263 ymax: -10.5702
#> Geodetic CRS:  WGS 84
#> # A tibble: 19,034 x 48
#>    id        toilet_id url     name   address1 town  state postcode address_note male  female unisex dump_point facility_type toilet_type access_limited payment_required key_required
#>    <chr>         <int> <chr>   <chr>  <chr>    <chr> <chr>    <int> <chr>        <lgl> <lgl>  <lgl>  <lgl>      <chr>         <chr>       <lgl>          <lgl>            <lgl>       
#>  1 datasour~       272 https:~ Brisb~ Brisban~ Merr~ New ~     2329 <NA>         TRUE  TRUE   FALSE  FALSE      <NA>          <NA>        FALSE          FALSE            FALSE       
#>  2 datasour~       578 https:~ Natim~ Wimmera~ Nati~ Vict~     3409 <NA>         TRUE  TRUE   FALSE  FALSE      <NA>          <NA>        FALSE          FALSE            FALSE       
#>  3 datasour~       628 https:~ Bridg~ Bridge ~ Pens~ New ~     2222 <NA>         TRUE  TRUE   FALSE  FALSE      <NA>          <NA>        FALSE          FALSE            FALSE       
#>  4 datasour~       868 https:~ Sands~ Oroya S~ Sand~ West~     6639 <NA>         TRUE  TRUE   FALSE  FALSE      <NA>          <NA>        FALSE          FALSE            FALSE       
#>  5 datasour~      1300 https:~ Murra~ Ravensw~ Rave~ West~     6208 <NA>         TRUE  TRUE   FALSE  FALSE      <NA>          <NA>        FALSE          FALSE            FALSE       
#>  6 datasour~      1461 https:~ Menzi~ Purslow~ Moun~ West~     6016 <NA>         TRUE  TRUE   FALSE  FALSE      Park or rese~ Sewerage    FALSE          FALSE            FALSE       
#>  7 datasour~      1638 https:~ Roy H~ Warrego~ Dula~ Quee~     4425 <NA>         TRUE  TRUE   FALSE  FALSE      Park or rese~ Sewerage    FALSE          FALSE            FALSE       
#>  8 datasour~      1750 https:~ Merin~ Taggert~ Meri~ Vict~     3496 <NA>         TRUE  TRUE   FALSE  FALSE      <NA>          <NA>        FALSE          FALSE            FALSE       
#>  9 datasour~      2520 https:~ Show ~ Evans S~ Wang~ Vict~     3677 <NA>         TRUE  TRUE   FALSE  FALSE      Sporting fac~ <NA>        FALSE          FALSE            FALSE       
#> 10 datasour~      2725 https:~ Harol~ Paxton ~ Clev~ Quee~     4163 <NA>         TRUE  TRUE   FALSE  FALSE      Park or rese~ Sewerage    FALSE          FALSE            FALSE       
#> # ... with 19,024 more rows, and 30 more variables: access_note <chr>, parking <lgl>, parking_note <chr>, accessible_male <lgl>, accessible_female <lgl>, accessible_unisex <lgl>,
#> #   accessible_note <chr>, mlak <lgl>, parking_accessible <lgl>, access_parking_note <chr>, ambulant <lgl>, lh_transfer <lgl>, rh_transfer <lgl>, adult_change <lgl>,
#> #   changing_places <lgl>, is_open <chr>, opening_hours <chr>, openinghours_note <chr>, baby_change <lgl>, showers <lgl>, drinking_water <lgl>, sharps_disposal <lgl>,
#> #   sanitary_disposal <lgl>, icon_url <chr>, icon_alt_text <chr>, notes <chr>, status <chr>, latitude <dbl>, longitude <dbl>, geometry <POINT [°]>
#> 
#> [[3]]
#> Simple feature collection with 16737 features and 39 fields
#> Geometry type: POINT
#> Dimension:     XY
#> Bounding box:  xmin: 113.4102 ymin: -43.582 xmax: 153.6222 ymax: -10.5712
#> Geodetic CRS:  WGS 84
#> # A tibble: 16,737 x 40
#>    id     ogc_fid status  lastupdate name  address1 town  state postcode addressnote   male female unisex facilitytype toilettype accesslimited paymentrequired keyrequired accessnote
#>    <chr>    <int> <chr>   <date>     <chr> <chr>    <chr> <chr> <chr>    <chr>        <int>  <int> <chr>  <chr>        <chr>              <int>           <int>       <int> <chr>     
#>  1 datas~      28 Verifi~ 2008-02-13 Flyi~ Esplana~ Flyi~ Quee~ 4860     <NA>             1      1 <NA>   <NA>         <NA>                   0               0           0 <NA>      
#>  2 datas~     301 Verifi~ 2009-03-25 Tour~ Leslie ~ Stan~ Quee~ 4380     <NA>             1      1 <NA>   <NA>         <NA>                   0               0           0 <NA>      
#>  3 datas~     381 Verifi~ 2010-03-24 Pinn~ Day Str~ Pinn~ Sout~ 5304     <NA>             1      1 <NA>   <NA>         <NA>                   0               0           0 <NA>      
#>  4 datas~     500 Verifi~ 2008-01-30 Rive~ <NA>     Waik~ Sout~ 5330     <NA>             1      1 <NA>   Park or res~ <NA>                   0               0           0 <NA>      
#>  5 datas~     612 Verifi~ 2008-02-18 Kend~ <NA>     Kend~ West~ 6323     <NA>             1      1 <NA>   <NA>         <NA>                   0               0           0 <NA>      
#>  6 datas~     620 Verifi~ 2006-02-10 Shen~ 124 She~ Menz~ West~ 6436     Toilets are~     1      1 <NA>   Other        Sewerage               0               0           0 <NA>      
#>  7 datas~     673 Verifi~ 2008-02-18 Rota~ 1836 No~ Sout~ West~ 6701     Near 10 mil~     1      1 <NA>   Park or res~ Septic                 0               0           0 <NA>      
#>  8 datas~     708 Verifi~ 2009-02-24 Sand~ Oroya S~ Sand~ West~ 6639     <NA>             1      1 <NA>   <NA>         <NA>                   0               0           0 <NA>      
#>  9 datas~     734 Verifi~ 2009-02-18 McIn~ Bent St~ Leon~ Vict~ 3953     <NA>             1      1 <NA>   Park or res~ <NA>                   0               0           0 <NA>      
#> 10 datas~     847 Verifi~ 2008-02-18 Libr~ Civic R~ Aubu~ New ~ 2144     <NA>             1      1 <NA>   Other        Sewerage               0               0           0 <NA>      
#> # ... with 16,727 more rows, and 21 more variables: parking <int>, parkingnote <chr>, yearinstalled <chr>, accessiblemale <int>, accessiblefemale <int>, accessibleunisex <int>,
#> #   accessiblenote <chr>, mlak <int>, parkingaccessible <int>, accessibleparkingnote <chr>, isopen <chr>, openinghoursschedule <chr>, openinghoursnote <chr>, babychange <int>,
#> #   showers <int>, drinkingwater <int>, sharpsdisposal <int>, sanitarydisposal <int>, iconalttext <chr>, notes <chr>, geometry <POINT [°]>
```
