Fetch AURIN dataset. — aur_get • aurinapi
…
    aur_build_request() returns a URL.

    Examples

# follow the example in https://aurin.org.au/resources/aurin-apis/aurin-open-api-and-r/
aur_get("aurin:datasource-UQ_ERG-UoM_AURIN_DB_public_toilets")
#> ℹ Downloading 'aurin:datasource-UQ_ERG-UoM_AURIN_DB_public_toilets'...
#> ✔ Finished!
#> Simple feature collection with 16737 features and 39 fields
#> Geometry type: POINT
#> Dimension:     XY
#> Bounding box:  xmin: 113.4102 ymin: -43.582 xmax: 153.6222 ymax: -10.5712
#> Geodetic CRS:  WGS 84
#> # A tibble: 16,737 × 40
#>    id         ogc_fid status lastupdate name   address1   town   state  postcode
#>    <chr>        <int> <chr>  <date>     <chr>  <chr>      <chr>  <chr>  <chr>   
#>  1 datasourc…      28 Verif… 2008-02-13 Flyin… Esplanade  Flyin… Queen… 4860    
#>  2 datasourc…     301 Verif… 2009-03-25 Touri… Leslie Pa… Stant… Queen… 4380    
#>  3 datasourc…     381 Verif… 2010-03-24 Pinna… Day Street Pinna… South… 5304    
#>  4 datasourc…     500 Verif… 2008-01-30 River… NA         Waike… South… 5330    
#>  5 datasourc…     612 Verif… 2008-02-18 Kende… NA         Kende… Weste… 6323    
#>  6 datasourc…     620 Verif… 2006-02-10 Shent… 124 Shent… Menzi… Weste… 6436    
#>  7 datasourc…     673 Verif… 2008-02-18 Rotar… 1836 Nort… South… Weste… 6701    
#>  8 datasourc…     708 Verif… 2009-02-24 Sands… Oroya Str… Sands… Weste… 6639    
#>  9 datasourc…     734 Verif… 2009-02-18 McInd… Bent Stre… Leong… Victo… 3953    
#> 10 datasourc…     847 Verif… 2008-02-18 Libra… Civic Road Auburn New S… 2144    
#> # … with 16,727 more rows, and 31 more variables: addressnote <chr>,
#> #   male <int>, female <int>, unisex <chr>, facilitytype <chr>,
#> #   toilettype <chr>, accesslimited <int>, paymentrequired <int>,
#> #   keyrequired <int>, accessnote <chr>, parking <int>, parkingnote <chr>,
#> #   yearinstalled <chr>, accessiblemale <int>, accessiblefemale <int>,
#> #   accessibleunisex <int>, accessiblenote <chr>, mlak <int>,
#> #   parkingaccessible <int>, accessibleparkingnote <chr>, isopen <chr>, …
…
